{
  "Serilog": {
    "Using": [ "Serilog.Sinks.Console", "Serilog.Sinks.File", "Serilog.Sinks.Seq" ],
    "MinimumLevel": "Information",
    "WriteTo": [
      { "Name": "Console" },
      {
        "Name": "File",
        "Args": {
          "path": "Questions/questions.txt",
          "rollingInterval": "Day"
        }
      },
      {
        "Name": "File",
        "Args": {
          "path": "Questions/questions.json",
          "formatter": "Serilog.Formatting.Compact.CompactJsonFormatter, Serilog.Formatting.Compact",
          "rollingInterval": "Day"
        }
      },
      {
        "Name": "Seq",
        "Args": {
          "serverUrl": "http://localhost:5341",
          "apiKey": "pass-key-here"
        }
      }
    ]
  }
}
